{
    "id": "c1e94b91-3dd7-7777-fca5-0c66f235",
    "type": "InsertNode",
    "followElement": {
        "id": "c90a40f8-6d0a-e8e4-beeb-e06399d0",
        "type": "OutputNode",
        "text": "Geben Sie eine mehrstellige, natürliche Zahl ein",
        "followElement": {
            "id": "ad1ae354-6628-9106-d324-9382f9c0",
            "type": "InsertNode",
            "followElement": {
                "id": "0a769bfd-d58d-37eb-0a19-819a99f2",
                "type": "FootLoopNode",
                "text": "solange ORIGINALZAHL (ohne Rest) durch 10 teilbar ist",
                "followElement": {
                    "id": "ae9a3120-af59-e1e4-788a-f4097ade",
                    "type": "InsertNode",
                    "followElement": {
                        "id": "8e6d8ab0-5fa0-a48a-f57b-6384f23a",
                        "type": "TaskNode",
                        "text": "SPIEGELZAHL = 0",
                        "followElement": {
                            "id": "eaebd906-ea03-c4db-6e23-cc6e6d97",
                            "type": "InsertNode",
                            "followElement": {
                                "id": "4c2f3bb8-afe9-5be3-4785-87374f30",
                                "type": "CountLoopNode",
                                "text": "Wiederhole für die Anzahl Ziffern in SPIEGELZAHL",
                                "followElement": {
                                    "id": "fc9f69f4-61f3-e0a4-6f75-0649f318",
                                    "type": "InsertNode",
                                    "followElement": {
                                        "id": "6ccfac16-186c-76c3-08af-6fda4997",
                                        "type": "OutputNode",
                                        "text": "Die Spiegelzahl lautet: SPIEGELZAHL",
                                        "followElement": {
                                            "id": "518c52a7-5c80-5688-1e99-98bd5271",
                                            "type": "InsertNode",
                                            "followElement": null
                                        }
                                    }
                                },
                                "child": {
                                    "id": "d086966e-e031-4d77-ce79-8996d34f",
                                    "type": "InsertNode",
                                    "followElement": {
                                        "id": "23d985e4-a5d3-ad3a-938b-2466426a",
                                        "type": "TaskNode",
                                        "text": "ZIFFER = Rest der Ganzzahldivision: ORIGINALZAHL / 10",
                                        "followElement": {
                                            "id": "31e2e00f-dc8b-c026-ba5e-245d3322",
                                            "type": "InsertNode",
                                            "followElement": {
                                                "id": "524f3183-932b-72d2-c1c9-1bcd16f6",
                                                "type": "TaskNode",
                                                "text": "ORIGINALZAHL = Ergebnis der Ganzzahldivision: ORIGINALZAHL / 10",
                                                "followElement": {
                                                    "id": "7671be3d-3946-9556-5b2b-93b0e4ce",
                                                    "type": "InsertNode",
                                                    "followElement": {
                                                        "id": "218d036d-1603-21ef-97aa-a6f29d5a",
                                                        "type": "TaskNode",
                                                        "text": "SPIEGELZAHL = 10 * SPIEGELZAHL + ZIFFER",
                                                        "followElement": {
                                                            "id": "c73deac9-9a82-1dd9-c7c5-fdf2e982",
                                                            "type": "InsertNode",
                                                            "followElement": null
                                                        }
                                                    }
                                                }
                                            }
                                        }
                                    }
                                }
                            }
                        }
                    }
                },
                "child": {
                    "id": "b3f82acc-b57c-be24-54ed-a39f0568",
                    "type": "InsertNode",
                    "followElement": {
                        "id": "871e8099-f029-d044-ba14-372517a1",
                        "type": "InputNode",
                        "text": "ORIGINALZAHL",
                        "followElement": {
                            "id": "073540be-f598-57e5-b604-4ebeeaf3",
                            "type": "InsertNode",
                            "followElement": {
                                "id": "fe0f714d-ff0c-1247-f302-51c638b2",
                                "type": "BranchNode",
                                "text": "Ist ORIGINALZAHL (ohne Rest) durch 10 teilbar?",
                                "followElement": {
                                    "id": "d5baa089-5348-42fc-2ce8-57d20ec8",
                                    "type": "InsertNode",
                                    "followElement": null
                                },
                                "trueChild": {
                                    "id": "c463fabe-7c3f-b9a6-6583-0d150c11",
                                    "type": "InsertNode",
                                    "followElement": {
                                        "id": "f3db7055-a450-ce7d-c176-e81816ac",
                                        "type": "OutputNode",
                                        "text": "Ein Vielfaches der Zahl 10 kann nicht gespiegelt werden. Geben Sie bitte eine andere Zahl ein.",
                                        "followElement": {
                                            "id": "d88f1e86-8abd-1408-4df7-3a76702a",
                                            "type": "InsertNode",
                                            "followElement": null
                                        }
                                    }
                                },
                                "falseChild": {
                                    "id": "84d72737-5450-4969-092b-9fe807c0",
                                    "type": "InsertNode",
                                    "followElement": {
                                        "type": "Placeholder"
                                    }
                                }
                            }
                        }
                    }
                }
            }
        }
    }
}